nohup: ignoring input
 * Serving Flask app 'flask_test' (lazy loading)
 * Environment: production
   WARNING: This is a development server. Do not use it in a production deployment.
   Use a production WSGI server instead.
 * Debug mode: on
 * Running on all addresses (0.0.0.0)
   WARNING: This is a development server. Do not use it in a production deployment.
 * Running on http://127.0.0.1:5000
 * Running on http://192.168.1.68:5000 (Press CTRL+C to quit)
 * Restarting with stat
 * Debugger is active!
 * Debugger PIN: 267-285-890
127.0.0.1 - - [12/Jul/2022 16:54:54] "GET /get HTTP/1.1" 200 -
127.0.0.1 - - [12/Jul/2022 16:55:07] "GET /get HTTP/1.1" 200 -
127.0.0.1 - - [12/Jul/2022 16:55:09] "GET /get HTTP/1.1" 200 -
127.0.0.1 - - [12/Jul/2022 16:55:12] "GET /get HTTP/1.1" 200 -
127.0.0.1 - - [12/Jul/2022 17:06:59] "GET / HTTP/1.1" 404 -
127.0.0.1 - - [12/Jul/2022 17:07:04] "GET / HTTP/1.1" 404 -
127.0.0.1 - - [12/Jul/2022 17:07:12] "GET /get HTTP/1.1" 200 -
